---
http_interactions:
- request:
    method: get
    uri: https://api.pexels.com/v1/search?query=denver
    body:
      encoding: US-ASCII
      string: ''
    headers:
      Authorization:
      - "<IMAGE_API_KEY>"
      User-Agent:
      - Faraday v1.1.0
      Accept-Encoding:
      - gzip;q=1.0,deflate;q=0.6,identity;q=0.3
      Accept:
      - "*/*"
  response:
    status:
      code: 200
      message: OK
    headers:
      Date:
      - Wed, 11 Nov 2020 01:42:29 GMT
      Content-Type:
      - application/json; charset=utf-8
      Content-Length:
      - '1865'
      Connection:
      - keep-alive
      Set-Cookie:
      - __cfduid=d85af37bec7c323759a8ac45c510ecd2c1605058948; expires=Fri, 11-Dec-20
        01:42:28 GMT; path=/; domain=.pexels.com; HttpOnly; SameSite=Lax
      - __cfduid=dcc54eb929b2603759fd20640c7256c7a1605058948; expires=Fri, 11-Dec-20
        01:42:28 GMT; path=/; domain=.pexels.com; HttpOnly; SameSite=Lax
      Cache-Control:
      - max-age=0, private, must-revalidate
      Cf-Cache-Status:
      - DYNAMIC
      Cf-Request-Id:
      - '06569107110000f79474290000000001'
      Expect-Ct:
      - max-age=604800, report-uri="https://report-uri.cloudflare.com/cdn-cgi/beacon/expect-ct"
      Vary:
      - Origin
      X-Frame-Options:
      - ALLOWALL
      X-Ratelimit-Limit:
      - '20000'
      X-Ratelimit-Remaining:
      - '19966'
      X-Ratelimit-Reset:
      - '1607398665'
      X-Request-Id:
      - b18ef0fe-eb58-4433-831d-181614481d41
      X-Runtime:
      - '0.082207'
      X-Server:
      - master
      Server:
      - cloudflare
      Cf-Ray:
      - 5f04511e8eb0f794-DEN
    body:
      encoding: ASCII-8BIT
      string: '{"page":1,"per_page":15,"photos":[{"id":2706750,"width":6240,"height":4160,"url":"https://www.pexels.com/photo/union-station-building-2706750/","photographer":"Thomas
        Ward","photographer_url":"https://www.pexels.com/@thomasleeward","photographer_id":220769,"src":{"original":"https://images.pexels.com/photos/2706750/pexels-photo-2706750.jpeg","large2x":"https://images.pexels.com/photos/2706750/pexels-photo-2706750.jpeg?auto=compress\u0026cs=tinysrgb\u0026dpr=2\u0026h=650\u0026w=940","large":"https://images.pexels.com/photos/2706750/pexels-photo-2706750.jpeg?auto=compress\u0026cs=tinysrgb\u0026h=650\u0026w=940","medium":"https://images.pexels.com/photos/2706750/pexels-photo-2706750.jpeg?auto=compress\u0026cs=tinysrgb\u0026h=350","small":"https://images.pexels.com/photos/2706750/pexels-photo-2706750.jpeg?auto=compress\u0026cs=tinysrgb\u0026h=130","portrait":"https://images.pexels.com/photos/2706750/pexels-photo-2706750.jpeg?auto=compress\u0026cs=tinysrgb\u0026fit=crop\u0026h=1200\u0026w=800","landscape":"https://images.pexels.com/photos/2706750/pexels-photo-2706750.jpeg?auto=compress\u0026cs=tinysrgb\u0026fit=crop\u0026h=627\u0026w=1200","tiny":"https://images.pexels.com/photos/2706750/pexels-photo-2706750.jpeg?auto=compress\u0026cs=tinysrgb\u0026dpr=1\u0026fit=crop\u0026h=200\u0026w=280"},"liked":false},{"id":3751010,"width":3712,"height":5568,"url":"https://www.pexels.com/photo/red-and-white-concrete-building-during-night-time-3751010/","photographer":"Colin
        Lloyd","photographer_url":"https://www.pexels.com/@colin-lloyd-2120291","photographer_id":2120291,"src":{"original":"https://images.pexels.com/photos/3751010/pexels-photo-3751010.jpeg","large2x":"https://images.pexels.com/photos/3751010/pexels-photo-3751010.jpeg?auto=compress\u0026cs=tinysrgb\u0026dpr=2\u0026h=650\u0026w=940","large":"https://images.pexels.com/photos/3751010/pexels-photo-3751010.jpeg?auto=compress\u0026cs=tinysrgb\u0026h=650\u0026w=940","medium":"https://images.pexels.com/photos/3751010/pexels-photo-3751010.jpeg?auto=compress\u0026cs=tinysrgb\u0026h=350","small":"https://images.pexels.com/photos/3751010/pexels-photo-3751010.jpeg?auto=compress\u0026cs=tinysrgb\u0026h=130","portrait":"https://images.pexels.com/photos/3751010/pexels-photo-3751010.jpeg?auto=compress\u0026cs=tinysrgb\u0026fit=crop\u0026h=1200\u0026w=800","landscape":"https://images.pexels.com/photos/3751010/pexels-photo-3751010.jpeg?auto=compress\u0026cs=tinysrgb\u0026fit=crop\u0026h=627\u0026w=1200","tiny":"https://images.pexels.com/photos/3751010/pexels-photo-3751010.jpeg?auto=compress\u0026cs=tinysrgb\u0026dpr=1\u0026fit=crop\u0026h=200\u0026w=280"},"liked":false},{"id":3751009,"width":3322,"height":4983,"url":"https://www.pexels.com/photo/brown-concrete-building-during-night-time-3751009/","photographer":"Colin
        Lloyd","photographer_url":"https://www.pexels.com/@colin-lloyd-2120291","photographer_id":2120291,"src":{"original":"https://images.pexels.com/photos/3751009/pexels-photo-3751009.jpeg","large2x":"https://images.pexels.com/photos/3751009/pexels-photo-3751009.jpeg?auto=compress\u0026cs=tinysrgb\u0026dpr=2\u0026h=650\u0026w=940","large":"https://images.pexels.com/photos/3751009/pexels-photo-3751009.jpeg?auto=compress\u0026cs=tinysrgb\u0026h=650\u0026w=940","medium":"https://images.pexels.com/photos/3751009/pexels-photo-3751009.jpeg?auto=compress\u0026cs=tinysrgb\u0026h=350","small":"https://images.pexels.com/photos/3751009/pexels-photo-3751009.jpeg?auto=compress\u0026cs=tinysrgb\u0026h=130","portrait":"https://images.pexels.com/photos/3751009/pexels-photo-3751009.jpeg?auto=compress\u0026cs=tinysrgb\u0026fit=crop\u0026h=1200\u0026w=800","landscape":"https://images.pexels.com/photos/3751009/pexels-photo-3751009.jpeg?auto=compress\u0026cs=tinysrgb\u0026fit=crop\u0026h=627\u0026w=1200","tiny":"https://images.pexels.com/photos/3751009/pexels-photo-3751009.jpeg?auto=compress\u0026cs=tinysrgb\u0026dpr=1\u0026fit=crop\u0026h=200\u0026w=280"},"liked":false},{"id":2269617,"width":4000,"height":6000,"url":"https://www.pexels.com/photo/concrete-buildings-2269617/","photographer":"Spencer
        Selover","photographer_url":"https://www.pexels.com/@spencer-selover-142259","photographer_id":142259,"src":{"original":"https://images.pexels.com/photos/2269617/pexels-photo-2269617.jpeg","large2x":"https://images.pexels.com/photos/2269617/pexels-photo-2269617.jpeg?auto=compress\u0026cs=tinysrgb\u0026dpr=2\u0026h=650\u0026w=940","large":"https://images.pexels.com/photos/2269617/pexels-photo-2269617.jpeg?auto=compress\u0026cs=tinysrgb\u0026h=650\u0026w=940","medium":"https://images.pexels.com/photos/2269617/pexels-photo-2269617.jpeg?auto=compress\u0026cs=tinysrgb\u0026h=350","small":"https://images.pexels.com/photos/2269617/pexels-photo-2269617.jpeg?auto=compress\u0026cs=tinysrgb\u0026h=130","portrait":"https://images.pexels.com/photos/2269617/pexels-photo-2269617.jpeg?auto=compress\u0026cs=tinysrgb\u0026fit=crop\u0026h=1200\u0026w=800","landscape":"https://images.pexels.com/photos/2269617/pexels-photo-2269617.jpeg?auto=compress\u0026cs=tinysrgb\u0026fit=crop\u0026h=627\u0026w=1200","tiny":"https://images.pexels.com/photos/2269617/pexels-photo-2269617.jpeg?auto=compress\u0026cs=tinysrgb\u0026dpr=1\u0026fit=crop\u0026h=200\u0026w=280"},"liked":false},{"id":3047493,"width":4669,"height":3159,"url":"https://www.pexels.com/photo/scenic-view-of-the-mountains-with-green-pine-trees-beside-calm-body-of-water-3047493/","photographer":"Joshua
        Woroniecki","photographer_url":"https://www.pexels.com/@joshuaworoniecki","photographer_id":1253228,"src":{"original":"https://images.pexels.com/photos/3047493/pexels-photo-3047493.jpeg","large2x":"https://images.pexels.com/photos/3047493/pexels-photo-3047493.jpeg?auto=compress\u0026cs=tinysrgb\u0026dpr=2\u0026h=650\u0026w=940","large":"https://images.pexels.com/photos/3047493/pexels-photo-3047493.jpeg?auto=compress\u0026cs=tinysrgb\u0026h=650\u0026w=940","medium":"https://images.pexels.com/photos/3047493/pexels-photo-3047493.jpeg?auto=compress\u0026cs=tinysrgb\u0026h=350","small":"https://images.pexels.com/photos/3047493/pexels-photo-3047493.jpeg?auto=compress\u0026cs=tinysrgb\u0026h=130","portrait":"https://images.pexels.com/photos/3047493/pexels-photo-3047493.jpeg?auto=compress\u0026cs=tinysrgb\u0026fit=crop\u0026h=1200\u0026w=800","landscape":"https://images.pexels.com/photos/3047493/pexels-photo-3047493.jpeg?auto=compress\u0026cs=tinysrgb\u0026fit=crop\u0026h=627\u0026w=1200","tiny":"https://images.pexels.com/photos/3047493/pexels-photo-3047493.jpeg?auto=compress\u0026cs=tinysrgb\u0026dpr=1\u0026fit=crop\u0026h=200\u0026w=280"},"liked":false},{"id":3751006,"width":5399,"height":8701,"url":"https://www.pexels.com/photo/the-denver-post-office-and-federal-court-house-3751006/","photographer":"Colin
        Lloyd","photographer_url":"https://www.pexels.com/@colin-lloyd-2120291","photographer_id":2120291,"src":{"original":"https://images.pexels.com/photos/3751006/pexels-photo-3751006.jpeg","large2x":"https://images.pexels.com/photos/3751006/pexels-photo-3751006.jpeg?auto=compress\u0026cs=tinysrgb\u0026dpr=2\u0026h=650\u0026w=940","large":"https://images.pexels.com/photos/3751006/pexels-photo-3751006.jpeg?auto=compress\u0026cs=tinysrgb\u0026h=650\u0026w=940","medium":"https://images.pexels.com/photos/3751006/pexels-photo-3751006.jpeg?auto=compress\u0026cs=tinysrgb\u0026h=350","small":"https://images.pexels.com/photos/3751006/pexels-photo-3751006.jpeg?auto=compress\u0026cs=tinysrgb\u0026h=130","portrait":"https://images.pexels.com/photos/3751006/pexels-photo-3751006.jpeg?auto=compress\u0026cs=tinysrgb\u0026fit=crop\u0026h=1200\u0026w=800","landscape":"https://images.pexels.com/photos/3751006/pexels-photo-3751006.jpeg?auto=compress\u0026cs=tinysrgb\u0026fit=crop\u0026h=627\u0026w=1200","tiny":"https://images.pexels.com/photos/3751006/pexels-photo-3751006.jpeg?auto=compress\u0026cs=tinysrgb\u0026dpr=1\u0026fit=crop\u0026h=200\u0026w=280"},"liked":false},{"id":210374,"width":2199,"height":1210,"url":"https://www.pexels.com/photo/architecture-attractions-building-cheesman-park-210374/","photographer":"Pixabay","photographer_url":"https://www.pexels.com/@pixabay","photographer_id":2659,"src":{"original":"https://images.pexels.com/photos/210374/pexels-photo-210374.jpeg","large2x":"https://images.pexels.com/photos/210374/pexels-photo-210374.jpeg?auto=compress\u0026cs=tinysrgb\u0026dpr=2\u0026h=650\u0026w=940","large":"https://images.pexels.com/photos/210374/pexels-photo-210374.jpeg?auto=compress\u0026cs=tinysrgb\u0026h=650\u0026w=940","medium":"https://images.pexels.com/photos/210374/pexels-photo-210374.jpeg?auto=compress\u0026cs=tinysrgb\u0026h=350","small":"https://images.pexels.com/photos/210374/pexels-photo-210374.jpeg?auto=compress\u0026cs=tinysrgb\u0026h=130","portrait":"https://images.pexels.com/photos/210374/pexels-photo-210374.jpeg?auto=compress\u0026cs=tinysrgb\u0026fit=crop\u0026h=1200\u0026w=800","landscape":"https://images.pexels.com/photos/210374/pexels-photo-210374.jpeg?auto=compress\u0026cs=tinysrgb\u0026fit=crop\u0026h=627\u0026w=1200","tiny":"https://images.pexels.com/photos/210374/pexels-photo-210374.jpeg?auto=compress\u0026cs=tinysrgb\u0026dpr=1\u0026fit=crop\u0026h=200\u0026w=280"},"liked":false},{"id":3751008,"width":3712,"height":5568,"url":"https://www.pexels.com/photo/people-walking-on-street-3751008/","photographer":"Colin
        Lloyd","photographer_url":"https://www.pexels.com/@colin-lloyd-2120291","photographer_id":2120291,"src":{"original":"https://images.pexels.com/photos/3751008/pexels-photo-3751008.jpeg","large2x":"https://images.pexels.com/photos/3751008/pexels-photo-3751008.jpeg?auto=compress\u0026cs=tinysrgb\u0026dpr=2\u0026h=650\u0026w=940","large":"https://images.pexels.com/photos/3751008/pexels-photo-3751008.jpeg?auto=compress\u0026cs=tinysrgb\u0026h=650\u0026w=940","medium":"https://images.pexels.com/photos/3751008/pexels-photo-3751008.jpeg?auto=compress\u0026cs=tinysrgb\u0026h=350","small":"https://images.pexels.com/photos/3751008/pexels-photo-3751008.jpeg?auto=compress\u0026cs=tinysrgb\u0026h=130","portrait":"https://images.pexels.com/photos/3751008/pexels-photo-3751008.jpeg?auto=compress\u0026cs=tinysrgb\u0026fit=crop\u0026h=1200\u0026w=800","landscape":"https://images.pexels.com/photos/3751008/pexels-photo-3751008.jpeg?auto=compress\u0026cs=tinysrgb\u0026fit=crop\u0026h=627\u0026w=1200","tiny":"https://images.pexels.com/photos/3751008/pexels-photo-3751008.jpeg?auto=compress\u0026cs=tinysrgb\u0026dpr=1\u0026fit=crop\u0026h=200\u0026w=280"},"liked":false},{"id":2500159,"width":3448,"height":4592,"url":"https://www.pexels.com/photo/photo-of-man-in-hoodie-sitting-on-concrete-slab-in-view-of-high-rise-building-under-sky-2500159/","photographer":"Aidan
        Roof","photographer_url":"https://www.pexels.com/@aidan-roof-1271136","photographer_id":1271136,"src":{"original":"https://images.pexels.com/photos/2500159/pexels-photo-2500159.png","large2x":"https://images.pexels.com/photos/2500159/pexels-photo-2500159.png?auto=compress\u0026cs=tinysrgb\u0026dpr=2\u0026h=650\u0026w=940","large":"https://images.pexels.com/photos/2500159/pexels-photo-2500159.png?auto=compress\u0026cs=tinysrgb\u0026h=650\u0026w=940","medium":"https://images.pexels.com/photos/2500159/pexels-photo-2500159.png?auto=compress\u0026cs=tinysrgb\u0026h=350","small":"https://images.pexels.com/photos/2500159/pexels-photo-2500159.png?auto=compress\u0026cs=tinysrgb\u0026h=130","portrait":"https://images.pexels.com/photos/2500159/pexels-photo-2500159.png?auto=compress\u0026cs=tinysrgb\u0026fit=crop\u0026h=1200\u0026w=800","landscape":"https://images.pexels.com/photos/2500159/pexels-photo-2500159.png?auto=compress\u0026cs=tinysrgb\u0026fit=crop\u0026h=627\u0026w=1200","tiny":"https://images.pexels.com/photos/2500159/pexels-photo-2500159.png?auto=compress\u0026cs=tinysrgb\u0026dpr=1\u0026fit=crop\u0026h=200\u0026w=280"},"liked":false},{"id":2269614,"width":4000,"height":6000,"url":"https://www.pexels.com/photo/traffic-lights-2269614/","photographer":"Spencer
        Selover","photographer_url":"https://www.pexels.com/@spencer-selover-142259","photographer_id":142259,"src":{"original":"https://images.pexels.com/photos/2269614/pexels-photo-2269614.jpeg","large2x":"https://images.pexels.com/photos/2269614/pexels-photo-2269614.jpeg?auto=compress\u0026cs=tinysrgb\u0026dpr=2\u0026h=650\u0026w=940","large":"https://images.pexels.com/photos/2269614/pexels-photo-2269614.jpeg?auto=compress\u0026cs=tinysrgb\u0026h=650\u0026w=940","medium":"https://images.pexels.com/photos/2269614/pexels-photo-2269614.jpeg?auto=compress\u0026cs=tinysrgb\u0026h=350","small":"https://images.pexels.com/photos/2269614/pexels-photo-2269614.jpeg?auto=compress\u0026cs=tinysrgb\u0026h=130","portrait":"https://images.pexels.com/photos/2269614/pexels-photo-2269614.jpeg?auto=compress\u0026cs=tinysrgb\u0026fit=crop\u0026h=1200\u0026w=800","landscape":"https://images.pexels.com/photos/2269614/pexels-photo-2269614.jpeg?auto=compress\u0026cs=tinysrgb\u0026fit=crop\u0026h=627\u0026w=1200","tiny":"https://images.pexels.com/photos/2269614/pexels-photo-2269614.jpeg?auto=compress\u0026cs=tinysrgb\u0026dpr=1\u0026fit=crop\u0026h=200\u0026w=280"},"liked":false},{"id":2910299,"width":3448,"height":4592,"url":"https://www.pexels.com/photo/man-leaning-on-wall-2910299/","photographer":"Aidan
        Roof","photographer_url":"https://www.pexels.com/@aidan-roof-1271136","photographer_id":1271136,"src":{"original":"https://images.pexels.com/photos/2910299/pexels-photo-2910299.jpeg","large2x":"https://images.pexels.com/photos/2910299/pexels-photo-2910299.jpeg?auto=compress\u0026cs=tinysrgb\u0026dpr=2\u0026h=650\u0026w=940","large":"https://images.pexels.com/photos/2910299/pexels-photo-2910299.jpeg?auto=compress\u0026cs=tinysrgb\u0026h=650\u0026w=940","medium":"https://images.pexels.com/photos/2910299/pexels-photo-2910299.jpeg?auto=compress\u0026cs=tinysrgb\u0026h=350","small":"https://images.pexels.com/photos/2910299/pexels-photo-2910299.jpeg?auto=compress\u0026cs=tinysrgb\u0026h=130","portrait":"https://images.pexels.com/photos/2910299/pexels-photo-2910299.jpeg?auto=compress\u0026cs=tinysrgb\u0026fit=crop\u0026h=1200\u0026w=800","landscape":"https://images.pexels.com/photos/2910299/pexels-photo-2910299.jpeg?auto=compress\u0026cs=tinysrgb\u0026fit=crop\u0026h=627\u0026w=1200","tiny":"https://images.pexels.com/photos/2910299/pexels-photo-2910299.jpeg?auto=compress\u0026cs=tinysrgb\u0026dpr=1\u0026fit=crop\u0026h=200\u0026w=280"},"liked":false},{"id":2422861,"width":3448,"height":4592,"url":"https://www.pexels.com/photo/curtain-wall-high-rise-building-beside-transmission-tower-2422861/","photographer":"Aidan
        Roof","photographer_url":"https://www.pexels.com/@aidan-roof-1271136","photographer_id":1271136,"src":{"original":"https://images.pexels.com/photos/2422861/pexels-photo-2422861.png","large2x":"https://images.pexels.com/photos/2422861/pexels-photo-2422861.png?auto=compress\u0026cs=tinysrgb\u0026dpr=2\u0026h=650\u0026w=940","large":"https://images.pexels.com/photos/2422861/pexels-photo-2422861.png?auto=compress\u0026cs=tinysrgb\u0026h=650\u0026w=940","medium":"https://images.pexels.com/photos/2422861/pexels-photo-2422861.png?auto=compress\u0026cs=tinysrgb\u0026h=350","small":"https://images.pexels.com/photos/2422861/pexels-photo-2422861.png?auto=compress\u0026cs=tinysrgb\u0026h=130","portrait":"https://images.pexels.com/photos/2422861/pexels-photo-2422861.png?auto=compress\u0026cs=tinysrgb\u0026fit=crop\u0026h=1200\u0026w=800","landscape":"https://images.pexels.com/photos/2422861/pexels-photo-2422861.png?auto=compress\u0026cs=tinysrgb\u0026fit=crop\u0026h=627\u0026w=1200","tiny":"https://images.pexels.com/photos/2422861/pexels-photo-2422861.png?auto=compress\u0026cs=tinysrgb\u0026dpr=1\u0026fit=crop\u0026h=200\u0026w=280"},"liked":false},{"id":4635036,"width":5448,"height":3632,"url":"https://www.pexels.com/photo/people-rallying-in-front-of-white-building-during-nightime-4635036/","photographer":"Colin
        Lloyd","photographer_url":"https://www.pexels.com/@colin-lloyd-2120291","photographer_id":2120291,"src":{"original":"https://images.pexels.com/photos/4635036/pexels-photo-4635036.jpeg","large2x":"https://images.pexels.com/photos/4635036/pexels-photo-4635036.jpeg?auto=compress\u0026cs=tinysrgb\u0026dpr=2\u0026h=650\u0026w=940","large":"https://images.pexels.com/photos/4635036/pexels-photo-4635036.jpeg?auto=compress\u0026cs=tinysrgb\u0026h=650\u0026w=940","medium":"https://images.pexels.com/photos/4635036/pexels-photo-4635036.jpeg?auto=compress\u0026cs=tinysrgb\u0026h=350","small":"https://images.pexels.com/photos/4635036/pexels-photo-4635036.jpeg?auto=compress\u0026cs=tinysrgb\u0026h=130","portrait":"https://images.pexels.com/photos/4635036/pexels-photo-4635036.jpeg?auto=compress\u0026cs=tinysrgb\u0026fit=crop\u0026h=1200\u0026w=800","landscape":"https://images.pexels.com/photos/4635036/pexels-photo-4635036.jpeg?auto=compress\u0026cs=tinysrgb\u0026fit=crop\u0026h=627\u0026w=1200","tiny":"https://images.pexels.com/photos/4635036/pexels-photo-4635036.jpeg?auto=compress\u0026cs=tinysrgb\u0026dpr=1\u0026fit=crop\u0026h=200\u0026w=280"},"liked":false},{"id":4071364,"width":3332,"height":2290,"url":"https://www.pexels.com/photo/man-in-white-baseball-cap-4071364/","photographer":"Aidan
        Roof","photographer_url":"https://www.pexels.com/@aidan-roof-1271136","photographer_id":1271136,"src":{"original":"https://images.pexels.com/photos/4071364/pexels-photo-4071364.jpeg","large2x":"https://images.pexels.com/photos/4071364/pexels-photo-4071364.jpeg?auto=compress\u0026cs=tinysrgb\u0026dpr=2\u0026h=650\u0026w=940","large":"https://images.pexels.com/photos/4071364/pexels-photo-4071364.jpeg?auto=compress\u0026cs=tinysrgb\u0026h=650\u0026w=940","medium":"https://images.pexels.com/photos/4071364/pexels-photo-4071364.jpeg?auto=compress\u0026cs=tinysrgb\u0026h=350","small":"https://images.pexels.com/photos/4071364/pexels-photo-4071364.jpeg?auto=compress\u0026cs=tinysrgb\u0026h=130","portrait":"https://images.pexels.com/photos/4071364/pexels-photo-4071364.jpeg?auto=compress\u0026cs=tinysrgb\u0026fit=crop\u0026h=1200\u0026w=800","landscape":"https://images.pexels.com/photos/4071364/pexels-photo-4071364.jpeg?auto=compress\u0026cs=tinysrgb\u0026fit=crop\u0026h=627\u0026w=1200","tiny":"https://images.pexels.com/photos/4071364/pexels-photo-4071364.jpeg?auto=compress\u0026cs=tinysrgb\u0026dpr=1\u0026fit=crop\u0026h=200\u0026w=280"},"liked":false},{"id":4071362,"width":2314,"height":3181,"url":"https://www.pexels.com/photo/man-in-black-crew-neck-shirt-wearing-gray-hat-4071362/","photographer":"Aidan
        Roof","photographer_url":"https://www.pexels.com/@aidan-roof-1271136","photographer_id":1271136,"src":{"original":"https://images.pexels.com/photos/4071362/pexels-photo-4071362.jpeg","large2x":"https://images.pexels.com/photos/4071362/pexels-photo-4071362.jpeg?auto=compress\u0026cs=tinysrgb\u0026dpr=2\u0026h=650\u0026w=940","large":"https://images.pexels.com/photos/4071362/pexels-photo-4071362.jpeg?auto=compress\u0026cs=tinysrgb\u0026h=650\u0026w=940","medium":"https://images.pexels.com/photos/4071362/pexels-photo-4071362.jpeg?auto=compress\u0026cs=tinysrgb\u0026h=350","small":"https://images.pexels.com/photos/4071362/pexels-photo-4071362.jpeg?auto=compress\u0026cs=tinysrgb\u0026h=130","portrait":"https://images.pexels.com/photos/4071362/pexels-photo-4071362.jpeg?auto=compress\u0026cs=tinysrgb\u0026fit=crop\u0026h=1200\u0026w=800","landscape":"https://images.pexels.com/photos/4071362/pexels-photo-4071362.jpeg?auto=compress\u0026cs=tinysrgb\u0026fit=crop\u0026h=627\u0026w=1200","tiny":"https://images.pexels.com/photos/4071362/pexels-photo-4071362.jpeg?auto=compress\u0026cs=tinysrgb\u0026dpr=1\u0026fit=crop\u0026h=200\u0026w=280"},"liked":false}],"total_results":31,"next_page":"https://api.pexels.com/v1/search/?page=2\u0026per_page=15\u0026query=denver"}'
  recorded_at: Wed, 11 Nov 2020 01:42:29 GMT
recorded_with: VCR 6.0.0
